{
  "jsonrpc": "2.0",
  "method": "query",
  "params": {
    "type": 1,
    "chaincodeID": {
      "name": "60d1bc705a31fcdf8203bd63f3214e33a26abcbbb6e3d2c01a9c511d1e16fa15afd5cce3120fa6b85d6d9c2252ba1d4bd29c8bc4044852916196f24681ecf6e9"
    },
    "ctorMsg": {
      "function": "listTransaction",
      "args": [

      ]
    },
    "secureContext": "user_type1_0"
  },
  "id": 1234
}